{
    "_id": "GPI5kNu0xfom9kKa",
    "data": {
        "boosts": {
            "0": {
                "value": [
                    "cha",
                    "str"
                ]
            },
            "1": {
                "value": [
                    "cha",
                    "con",
                    "dex",
                    "int",
                    "str",
                    "wis"
                ]
            }
        },
        "description": {
            "value": "<p>Dragons have fascinated you for as long as you can remember. The potent power they possess, the long lives they lead, the ancient traditions they inspire-whatever the source of your interest, you've spent much of your life to this point immersed in all things draconic. These studies have bolstered your self-confidence and given you a wide range of methods and tactics you can use to impose your will on others.</p>\n<p>You've likely chosen to attend the Call for Heroes as a way to seek funds as an adventurer to afford more texts about dragons or perhaps out of a desire to encounter one in real life.</p>\n<p>Choose two ability boosts. One must be to <strong>Strength</strong> or <strong>Charisma</strong>, and one is a free ability boost.</p>\n<p>You're trained in the Intimidation skill, and the Dragon Lore skill. You gain the @Compendium[pf2e.feats-srd.Intimidating Glare]{Intimidating Glare} skill feat.</p>"
        },
        "items": {
            "29e0x": {
                "id": "xQMz6eDgX75WX2ce",
                "img": "systems/pf2e/icons/features/feats/feats.webp",
                "level": "1",
                "name": "Intimidating Glare",
                "pack": "pf2e.feats-srd"
            }
        },
        "rules": [],
        "source": {
            "value": "Pathfinder: Age of Ashes Player's Guide"
        },
        "trainedLore": "Dragon Lore",
        "trainedSkills": {
            "value": [
                "itm"
            ]
        },
        "traits": {
            "custom": "",
            "rarity": {
                "value": "common"
            },
            "value": []
        }
    },
    "effects": [],
    "flags": {},
    "img": "systems/pf2e/icons/default-icons/background.svg",
    "name": "Dragon Scholar",
    "type": "background"
}
