{
    "_id": "RZkttcpkv4qLs1Lk",
    "data": {
        "MAP": {
            "value": ""
        },
        "baseItem": "scythe",
        "bonus": {
            "value": 0
        },
        "bonusDamage": {
            "value": 0
        },
        "brokenThreshold": {
            "value": 0
        },
        "bulkCapacity": {
            "value": ""
        },
        "category": "martial",
        "collapsed": {
            "value": false
        },
        "containerId": {
            "value": null
        },
        "damage": {
            "damageType": "slashing",
            "dice": 1,
            "die": "d10",
            "value": ""
        },
        "description": {
            "value": "<p>The handles of this <em>+1 striking scythe</em> are made from a dull, gray wood of bone-like consistency, and when you slice with it, a fluttering gust of hundreds of moths' wingbeats fills the air. If you're a devotee of Urgathoa, you can use this scythe as a divine focus, and with every Strike, it exudes a pallid cloud of powdery dust.</p>\n<hr />\n<p><strong>Activate</strong> <span class=\"pf2-icon\">f</span> command (divine, necromancy, negative);</p>\n<p><strong>Frequency</strong> once per round;</p>\n<p><strong>Effect</strong> You deal [[/r {1d10}[negative]]]{1d10 negative damage} to yourself. If your next action is to Strike with the scythe or to Cast a Spell with the disease or negative trait, that Strike or spell deals additional negative damage equal to the damage you took (after any reductions or increases from immunity, resistances, weaknesses).</p>"
        },
        "equipped": {
            "value": false
        },
        "equippedBulk": {
            "value": ""
        },
        "group": "polearm",
        "hands": {
            "value": false
        },
        "hardness": {
            "value": 0
        },
        "hp": {
            "value": 0
        },
        "identification": {
            "misidentified": {},
            "status": "identified",
            "unidentified": {
                "data": {
                    "description": {
                        "value": ""
                    }
                },
                "img": "",
                "name": ""
            }
        },
        "invested": {
            "value": null
        },
        "level": {
            "value": 8
        },
        "maxHp": {
            "value": 0
        },
        "negateBulk": {
            "value": "0"
        },
        "potencyRune": {
            "value": 1
        },
        "preciousMaterial": {
            "value": null
        },
        "preciousMaterialGrade": {
            "value": null
        },
        "price": {
            "value": "475 gp"
        },
        "property1": {
            "critDamage": "",
            "critDamageType": "",
            "critDice": 0,
            "critDie": "",
            "criticalConditionType": "",
            "criticalConditionValue": null,
            "damageType": "",
            "dice": 0,
            "die": "",
            "strikeConditionType": "",
            "strikeConditionValue": null,
            "value": ""
        },
        "propertyRune1": {
            "value": null
        },
        "propertyRune2": {
            "value": null
        },
        "propertyRune3": {
            "value": null
        },
        "propertyRune4": {
            "value": null
        },
        "quantity": {
            "value": 1
        },
        "range": null,
        "reload": {
            "value": ""
        },
        "rules": [],
        "size": {
            "value": "med"
        },
        "source": {
            "value": "Pathfinder Secrets of Magic"
        },
        "specific": {
            "material": null,
            "runes": {
                "potency": 1,
                "striking": "striking"
            },
            "value": true
        },
        "splashDamage": {
            "value": 0
        },
        "stackGroup": {
            "value": ""
        },
        "strikingRune": {
            "value": "striking"
        },
        "traits": {
            "custom": "",
            "rarity": {
                "value": "common"
            },
            "value": [
                "deadly-d10",
                "divine",
                "necromancy",
                "negative",
                "trip"
            ]
        },
        "usage": {
            "value": "held-in-two-hands"
        },
        "weight": {
            "value": "2"
        }
    },
    "effects": [],
    "flags": {},
    "img": "systems/pf2e/icons/default-icons/weapon.svg",
    "name": "Hundred-Moth Caress",
    "type": "weapon"
}
