{
    "_id": "EM6YZCt6vFCFhXmb",
    "data": {
        "actionCategory": {
            "value": "defensive"
        },
        "actionType": {
            "value": "reaction"
        },
        "actions": {
            "value": null
        },
        "description": {
            "value": "<p data-visibility=\"gm\"><strong>Trigger</strong> A goblin ally ends a move action adjacent to the goblin.</p>\n<p><strong>Effect</strong> The goblin @Compendium[pf2e.actionspf2e.Step]{Steps}.</p>"
        },
        "requirements": {
            "value": ""
        },
        "rules": [],
        "source": {
            "value": "Pathfinder Bestiary"
        },
        "traits": {
            "custom": "",
            "rarity": {
                "value": "common"
            },
            "value": []
        },
        "trigger": {
            "value": ""
        },
        "weapon": {
            "value": ""
        }
    },
    "effects": [],
    "flags": {},
    "img": "systems/pf2e/icons/actions/Reaction.webp",
    "name": "(Goblin) Goblin Scuttle",
    "type": "action"
}
