{
    "_id": "nSU4nBU3fBTvb2k3",
    "content": "<table class=\"pf2-table\">\n<thead>\n<tr>\n<th>\n<h3><strong>Name</strong></h3>\n</th>\n<th>\n<h3><strong>Crit Effect</strong></h3>\n</th>\n<th>\n<h3><strong>Type</strong></h3>\n</th>\n</tr>\n</thead>\n<tbody>\n<tr>\n<td>\n<h3>Brained</h3>\n</td>\n<td>\n<h3>The target is stunned 1.</h3>\n</td>\n<td>\n<h3>Bludgeoning</h3>\n</td>\n</tr>\n<tr>\n<td>\n<h3>Kidney Piercing</h3>\n</td>\n<td>\n<h3>The target is sickened 2.</h3>\n</td>\n<td>\n<h3>Piercing</h3>\n</td>\n</tr>\n<tr>\n<td>\n<h3>Fingertipped</h3>\n</td>\n<td>\n<h3>Normal damage. Until healed, the target is clumsy 1 and can't use one of its hands (chosen randomly by the GM).</h3>\n</td>\n<td>\n<h3>Slashing</h3>\n</td>\n</tr>\n<tr>\n<td>\n<h3>Eyeburn</h3>\n</td>\n<td>\n<h3>The target is blinded until the end of its next turn.</h3>\n</td>\n<td>\n<h3>Bomb or Spell</h3>\n</td>\n</tr>\n</tbody>\n</table>\n<h3 style=\"text-align: left;\"> </h3>",
    "flags": {},
    "name": "Critical Hit Deck #20",
    "permission": {
        "default": 0
    }
}
