{
    "_id": "OizxuPb44g3eHPFh",
    "data": {
        "actionCategory": {
            "value": ""
        },
        "actionType": {
            "value": "passive"
        },
        "actions": {
            "value": null
        },
        "description": {
            "value": "<p>If you're an arcane spellcaster who prepares from a spellbook, you can attempt to prepare a spell from someone else's spellbook. The GM sets the DC for the check based on the spell's level and rarity; it's typically a bit easier than @Compendium[pf2e.actionspf2e.Learn a Spell]{Learning the Spell}.</p>\n<hr />\n<p><strong>Success</strong> You prepare the borrowed spell as part of your normal spell preparation.</p>\n<p><strong>Failure</strong> You fail to prepare the spell, but the spell slot remains available for you to prepare a different spell. You can't try to prepare this spell until the next time you prepare spells.</p>"
        },
        "requirements": {
            "value": ""
        },
        "rules": [],
        "source": {
            "value": "Pathfinder Core Rulebook"
        },
        "traits": {
            "custom": "",
            "rarity": {
                "value": "common"
            },
            "value": [
                "concentrate",
                "exploration"
            ]
        },
        "trigger": {
            "value": ""
        },
        "weapon": {
            "value": ""
        }
    },
    "effects": [],
    "flags": {},
    "img": "systems/pf2e/icons/default-icons/mystery-man.svg",
    "name": "Borrow an Arcane Spell",
    "type": "action"
}
