{
    "_id": "QNAVeNKtHA0EUw4X",
    "data": {
        "actionCategory": {
            "value": ""
        },
        "actionType": {
            "value": "action"
        },
        "actions": {
            "value": 1
        },
        "description": {
            "value": "<p><strong>Requirements</strong> You are within melee reach of the target you attempt to Feint.</p>\n<hr />\n<p>With a misleading flourish, you leave an opponent unprepared for your real attack. Attempt a <span data-pf2-action=\"feint\" data-pf2-glyph=\"A\">Deception</span> check against your target's Perception DC.</p>\n<hr />\n<p><strong>Critical Success</strong> You throw your enemy's defenses against you entirely off. The target is @Compendium[pf2e.conditionitems.Flat-Footed]{Flat-Footed} against melee attacks that you attempt against it until the end of your next turn.</p>\n<p><strong>Success</strong> Your foe is fooled, but only momentarily. The target is flat-footed against the next melee attack that you attempt against it before the end of your current turn.</p>\n<p><strong>Critical Failure</strong> Your feint backfires. You are flat-footed against melee attacks the target attempts against you until the end of your next turn.</p>"
        },
        "requirements": {
            "value": ""
        },
        "rules": [],
        "source": {
            "value": "Pathfinder Core Rulebook"
        },
        "traits": {
            "custom": "",
            "rarity": {
                "value": "common"
            },
            "value": [
                "skill",
                "mental"
            ]
        },
        "trigger": {
            "value": ""
        },
        "weapon": {
            "value": ""
        }
    },
    "effects": [],
    "flags": {},
    "img": "systems/pf2e/icons/actions/OneAction.webp",
    "name": "Feint",
    "type": "action"
}
