{
    "_id": "XzxADtNpUlRff972",
    "data": {
        "description": {
            "value": "<p>You transform into a Small or Medium animal that wields the fanged weapon in its jaws; the animal matches the animal you are most closely associated with (a lizardfolk would turn into a lizard, a kitsune into a fox, a deer instinct barbarian into a deer, etc.) or a wolf if no specific animal is applicable. While in this form, you can attack with the fanged weapon even though you don't have any hands. However, you can attack only with the fanged weapon and you don't have hands or the ability to hold items. For effects dependent on how many hands you are using to hold the item, such as the two-hand trait, you are holding the weapon in two hands. You can Dismiss this effect, and it ends automatically if you drop the fanged weapon (whether or not of your own volition).</p>\n<p>In animal form, you gain low-light vision and a +5-foot item bonus to your Speed.</p>"
        },
        "duration": {
            "expiry": "turn-start",
            "sustained": false,
            "unit": "unlimited",
            "value": -1
        },
        "level": {
            "value": 1
        },
        "rules": [
            {
                "key": "FlatModifier",
                "selector": "speed",
                "type": "item",
                "value": 5
            },
            {
                "key": "Sense",
                "selector": "lowLightVision"
            }
        ],
        "source": {
            "value": "Pathfinder Lost Omens: The Grand Bazaar"
        },
        "start": {
            "initiative": null,
            "value": 0
        },
        "target": null,
        "tokenIcon": {
            "show": true
        },
        "traits": {
            "custom": "",
            "rarity": {
                "value": "common"
            },
            "value": []
        }
    },
    "effects": [],
    "flags": {},
    "img": "systems/pf2e/icons/spells/animal-form.webp",
    "name": "Effect: Greater Fanged Rune Animal Form",
    "type": "effect"
}
