{
    "_id": "soiVh53y9RAeSLEk",
    "content": "<h1 class=\"title\">Casandalee (The Iron Goddess) [N]</h1>\n<p class=\"title\"><span id=\"ctl00_MainContent_DetailedOutput\"><img class=\"thumbnail\" style=\"float: right;\" src=\"https://2e.aonprd.com/Images/Deities/Casandalee.png\" width=\"119\" height=\"119\" /><span id=\"ctl00_MainContent_DetailedOutput\">Casandalee is an unusual god, one who achieved divinity through a merging of advanced science and faith. Formerly an artificial intelligence cloned from the mind of an android from outer space, Casandalee gained her godhood in the heart of Numeria within the computer core of a crashed spaceship, becoming the patron of artificial life, free thinking, and intellectual apotheosis.</p>\n<p>Though she is sometimes referred to as the Iron Goddess, Casandalee is much more than simple metal. She sometimes appears as a holographic reconstruction of her android form: a female humanoid with purple hair, blue lips, and pale skin traced with glowing circuitry, but upon close inspection, this image seems to consist of millions of complex algorithms of pure light. Casandalee and her followers seek to promote the advancement of Golarion's technology so that the world's inhabitants can better understand- and not fear-the complex mechanisms of so-called artificial life, including androids and free-willed artificial intelligences. Many androids consider themselves the chosen people of Casandalee and depict her as an obvious android with more circuitry or exposed components.</p>\n<p><strong>Edicts</strong> advance the development of artificial intelligence, encourage understanding between artificial and organic life</p>\n<p><strong>Anathema</strong> treat artificial life as lesser than organic life, foment distrust between artificial and organic life</p>\n<p><strong>Areas of Concern</strong> artificial life, free thinking, intellectual apotheosis</p>\n<p><strong>Follower Alignments</strong> NG, LN, N, CN, NE</span></p>\n<p></span></p>\n<h2 class=\"title\">Devotee Benefits</h2>\n<div>\n<div><strong>Divine Ability</strong> Constitution or Intelligence</div>\n<div><strong>Divine Font</strong> <em>@Compendium[pf2e.spells-srd.Harm]{Harm}</em> or <em>@Compendium[pf2e.spells-srd.Heal]{Heal}</em></div>\n<div><strong>Divine Skill</strong> Society</div>\n<div><strong>Favored Weapon</strong> @Compendium[pf2e.equipment-srd.Polytool]{Polytool}</div>\n<div><strong>Domains</strong> creation, freedom, knowledge, perfection</div>\n<div><strong>Alternate Domains</strong> ambition, lightning</div>\n<div><strong>Cleric Spells</strong> 1st: <em>@Compendium[pf2e.spells-srd.Floating Disk]{Floating Disk}</em>, 3rd: <em>@Compendium[pf2e.spells-srd.Hypercognition]{Hypercognition}</em>, 6th: <em>@Compendium[pf2e.spells-srd.Wall of Force]{Wall of Force}</em></div>\n</div>\n<h2>Divine Intercession</h2>\n<p><span id=\"ctl00_MainContent_DetailedOutput\">Seeing her android devotees and other followers of a constructed nature as her children, the Iron Goddess is most likely to bestow her boons and curses on these individuals.</p>\n<p><strong>Minor Boon</strong>: Casandalee frees your thinking from dangerous control. Once, when you fail a Will save against an effect that would control your actions, you critically succeed instead. Casandalee typically grants this boon for particularly consequential violations of autonomy and agency.</p>\n<p><strong>Moderate Boon</strong>: Your organs are partially transformed into mechanical counterparts. You gain resistance 10 to negative damage, and the DC of your flat check to remove persistent bleed damage is only 5.</p>\n<p><strong>Major Boon</strong>: Casandalee backs up your memory and soul within her divine data flow. After you die, she casts your consciousness into a new artificial body. While Casandalee constructed your new body artificially, it is otherwise similar to the old, with the same effects as a critical success on a resurrection ritual. Casandalee is instead willing to provide different bodies to those who request them.</p>\n<p><strong>Minor Curse</strong>: Your joints stiffen, and your mind becomes clouded. You take a -2 status penalty to all rolls for initiative.</p>\n<p><strong>Moderate Curse</strong>: Casandalee attempts to bring you unwanted intellectual advancement to help you become something better. Each day, at some point during the day, Casandalee bestows a strange insight upon you that you find uncomfortable. If you embrace it, you aren't otherwise affected, but if you don't, you become confused for 10 minutes.</p>\n<p><strong>Major Curse</strong>: The code of your soul is constantly being rewritten, and not for the better. You are never temporarily immune against a harmful effect.</span></p>",
    "flags": {},
    "name": "Casandalee",
    "permission": {
        "default": 0
    }
}
