{
    "_id": "jWmGQxJvKh5y5zfB",
    "content": "<p><strong>Deities</strong> @Compendium[pf2e.deities.Alseta]{Alseta}, @Compendium[pf2e.deities.Andoletta]{Andoletta}, @Compendium[pf2e.deities.Angradd]{Angradd}, @Compendium[pf2e.deities.Anubis]{Anubis}, @Compendium[pf2e.deities.Apsu]{Apsu}, @Compendium[pf2e.deities.Arazni]{Arazni}, @Compendium[pf2e.deities.Arundhat]{Arundhat}, @Compendium[pf2e.deities.Ashukharma]{Ashukharma}, @Compendium[pf2e.deities.Atreia]{Atreia}, @Compendium[pf2e.deities.Bastet]{Bastet}, @Compendium[pf2e.deities.Bes]{Bes}, @Compendium[pf2e.deities.Dwarven Pantheon]{Dwarven Pantheon}, @Compendium[pf2e.deities.Folgrit]{Folgrit}, @Compendium[pf2e.deities.Green Man]{Green Man}, @Compendium[pf2e.deities.Grundinnar]{Grundinnar}, @Compendium[pf2e.deities.Horus]{Horus}, @Compendium[pf2e.deities.Jaidz]{Jaidz}, @Compendium[pf2e.deities.Kazutal]{Kazutal}, @Compendium[pf2e.deities.Korada]{Korada}, @Compendium[pf2e.deities.Lymnieris]{Lymnieris}, @Compendium[pf2e.deities.Ma'at]{Ma'at}, @Compendium[pf2e.deities.Nethys]{Nethys}, @Compendium[pf2e.deities.Qi Zhong]{Qi Zhong}, @Compendium[pf2e.deities.Selket]{Selket}, @Compendium[pf2e.deities.Shelyn]{Shelyn}, @Compendium[pf2e.deities.Sobek]{Sobek}, @Compendium[pf2e.deities.Soralyon]{Soralyon}, @Compendium[pf2e.deities.The Godclaw]{The Godclaw}, @Compendium[pf2e.deities.The Prismatic Ray]{The Prismatic Ray}, @Compendium[pf2e.deities.Torag]{Torag}, @Compendium[pf2e.deities.Trudd]{Trudd}, @Compendium[pf2e.deities.Wadjet]{Wadjet}, @Compendium[pf2e.deities.Wards of the Pharaoh]{Wards of the Pharaoh}, @Compendium[pf2e.deities.Winlas]{Winlas}</p><p><strong>Domain Spell</strong> @Compendium[pf2e.spells-srd.Protector's Sacrifice]{Protector's Sacrifice}; <strong>Advanced Domain Spell</strong> @Compendium[pf2e.spells-srd.Protector's Sphere]{Protector's Sphere}</p><p><span id=\"ctl00_MainContent_DetailedOutput\">You ward yourself and others.</span></p><p></p>",
    "flags": {},
    "name": "Protection Domain",
    "permission": {
        "default": 0
    }
}
