{
    "_id": "X7MkBRJGUIp91k6f",
    "content": "<p><strong>Deities</strong> @Compendium[pf2e.deities.Andoletta]{Andoletta}, @Compendium[pf2e.deities.Arazni]{Arazni}, @Compendium[pf2e.deities.Count Ranalc]{Count Ranalc}, @Compendium[pf2e.deities.Doloras]{Doloras}, @Compendium[pf2e.deities.Likha]{Likha}, @Compendium[pf2e.deities.Naderi]{Naderi}, @Compendium[pf2e.deities.Narakaas]{Narakaas}, @Compendium[pf2e.deities.Pulura]{Pulura}, @Compendium[pf2e.deities.Ravithra]{Ravithra}, @Compendium[pf2e.deities.Shizuru]{Shizuru}, @Compendium[pf2e.deities.Sifkesh]{Sifkesh}, @Compendium[pf2e.deities.The Lost Prince]{The Lost Prince}, @Compendium[pf2e.deities.Vildeis]{Vildeis}, @Compendium[pf2e.deities.Zyphus]{Zyphus}</p><p><strong>Domain Spell</strong> @Compendium[pf2e.spells-srd.Lament]{Lament}; <strong>Advanced Domain Spell</strong> @Compendium[pf2e.spells-srd.Overflowing Sorrow]{Overflowing Sorrow}</p><p><span id=\"ctl00_MainContent_DetailedOutput\">You have a painful connection to melancholy and sadness.</span></p><p></p>",
    "flags": {},
    "name": "Sorrow Domain",
    "permission": {
        "default": 0
    }
}
