{
    "_id": "nx2nB10rypAuspAa",
    "data": {
        "actionCategory": {
            "value": ""
        },
        "actionType": {
            "value": "reaction"
        },
        "actions": {
            "value": null
        },
        "description": {
            "value": "<p><strong>Trigger</strong> You fail a save against a poison.</p>\n<hr />\n<p>A small amount of poison, taken at nonlethal doses, can help the body build up a resistance against a more deadly dosage. Reroll the triggering check and use the second result.</p>\n<p>Once you use Acquired Tolerance, you can continue to use it against the same type of poison that day, but you can't use it against a different type of poison until after you make your next daily preparations.</p>\n<p>For instance, if you used the reaction on a save against @Compendium[pf2e.equipment-srd.Giant Scorpion Venom]{Giant Scorpion Venom}, you could use it again against giant scorpion venom even if it came from a different source, but you couldn't use it against @Compendium[pf2e.equipment-srd.Nettleweed Residue]{Nettleweed Residue}, @Compendium[pf2e.equipment-srd.Lich Dust]{Lich Dust}, or another poison.</p>"
        },
        "featType": {
            "value": "archetype"
        },
        "level": {
            "value": 8
        },
        "prerequisites": {
            "value": [
                {
                    "value": "Poisoner Dedication"
                }
            ]
        },
        "rules": [],
        "source": {
            "value": "Pathfinder Advanced Player's Guide"
        },
        "traits": {
            "custom": "",
            "rarity": {
                "value": "common"
            },
            "value": [
                "archetype",
                "fortune"
            ]
        }
    },
    "effects": [],
    "flags": {},
    "img": "systems/pf2e/icons/features/feats/feats.webp",
    "name": "Acquired Tolerance",
    "type": "feat"
}
