{
    "_id": "to6s7QanfhHukW5r",
    "data": {
        "actionCategory": {
            "value": ""
        },
        "actionType": {
            "value": "action"
        },
        "actions": {
            "value": 2
        },
        "description": {
            "value": "<p>You rush forward, moving enemies aside to reach your foe. You @Compendium[pf2e.actionspf2e.Stride]{Stride}, attempting to move through your enemies' spaces, and make a melee @Compendium[pf2e.actionspf2e.Strike]{Strike}.</p>\n<p>Roll an Athletics check and compare the result to the Fortitude DC of each creature whose space you attempt to move through during your Stride, moving through their space on a success but ending your movement before entering their space on a failure.</p>\n<p>You can use Barreling Charge to @Compendium[pf2e.actionspf2e.Burrow]{Burrow}, @Compendium[pf2e.actionspf2e.Climb]{Climb}, @Compendium[pf2e.actionspf2e.Fly]{Fly}, or @Compendium[pf2e.actionspf2e.Swim]{Swim} instead of Stride if you have the corresponding movement type.</p>"
        },
        "featType": {
            "value": "class"
        },
        "level": {
            "value": 4
        },
        "prerequisites": {
            "value": [
                {
                    "value": "trained in Athletics"
                }
            ]
        },
        "rules": [],
        "source": {
            "value": "Pathfinder Advanced Player's Guide"
        },
        "traits": {
            "custom": "",
            "rarity": {
                "value": "common"
            },
            "value": [
                "barbarian",
                "fighter",
                "flourish"
            ]
        }
    },
    "effects": [],
    "flags": {},
    "img": "systems/pf2e/icons/features/feats/feats.webp",
    "name": "Barreling Charge",
    "type": "feat"
}
