{
    "_id": "qvLcZGsV0HP2O0CG",
    "data": {
        "actionCategory": {
            "value": ""
        },
        "actionType": {
            "value": "passive"
        },
        "actions": {
            "value": null
        },
        "description": {
            "value": "<p>You are constantly drawing up plans and battle scenarios, assembling strategies and gathered intelligence for later use. When you scout an enemy's position or receive a detailed report from an ally who scouted the enemy's position, if you have a clear indication of the number, position, and identities of your potential foes, you can spend 1 minute to come up with a battle plan that takes such potential factors into account and reduces the role luck plays in the equation.</p>\n<p>Roll a Warfare Lore check. As long as the information was accurate and remains accurate when you roll initiative against those enemies, you can use the Warfare Lore result you previously rolled for your initiative roll; if you do, this is a fortune effect.</p>"
        },
        "featType": {
            "value": "skill"
        },
        "level": {
            "value": 2
        },
        "prerequisites": {
            "value": [
                {
                    "value": "expert in Warfare Lore"
                }
            ]
        },
        "rules": [],
        "source": {
            "value": "Pathfinder Advanced Player's Guide"
        },
        "traits": {
            "custom": "",
            "rarity": {
                "value": "common"
            },
            "value": [
                "general",
                "skill"
            ]
        }
    },
    "effects": [],
    "flags": {},
    "img": "systems/pf2e/icons/features/feats/feats.webp",
    "name": "Battle Planner",
    "type": "feat"
}
