{
    "_id": "IOlvpmeIwlk0IACr",
    "data": {
        "actionCategory": {
            "value": "interaction"
        },
        "actionType": {
            "value": "passive"
        },
        "actions": {
            "value": null
        },
        "description": {
            "value": "<p>Using your ancestors' bones, you manifest their spirits around you in a fossilized form, terrifying your foes. You can cast <em>@Compendium[pf2e.spells-srd.Mask of Terror]{Mask of Terror}</em> on yourself as a primal innate spell once per day. When you do, you appear as a skeletal lizardfolk ancestor, twisted in a way that inspires the deepest fears of those who observe you.</p>"
        },
        "featType": {
            "value": "ancestry"
        },
        "level": {
            "value": 17
        },
        "location": "",
        "prerequisites": {
            "value": []
        },
        "rules": [],
        "source": {
            "value": "Pathfinder Lost Omens: The Mwangi Expanse"
        },
        "traits": {
            "custom": "",
            "rarity": {
                "value": "common"
            },
            "value": [
                "lizardfolk"
            ]
        }
    },
    "effects": [],
    "flags": {},
    "img": "systems/pf2e/icons/default-icons/feats.webp",
    "name": "Bone Rider",
    "type": "feat"
}
