{
    "_id": "PTXZ2C3AV8tZf0iX",
    "data": {
        "actionCategory": {
            "value": ""
        },
        "actionType": {
            "value": "passive"
        },
        "actions": {
            "value": null
        },
        "description": {
            "value": "<p>With some streamlining to your process and a deeper collection of talisman materials, you make a greater number of talismans every day. You can create two additional talismans during your daily preparations.</p>\n<p><strong>Special</strong> You can select this feat a second time if you are 14th level or higher.</p>"
        },
        "featType": {
            "value": "archetype"
        },
        "level": {
            "value": 8
        },
        "prerequisites": {
            "value": [
                {
                    "value": "Talisman Dabbler Dedication"
                }
            ]
        },
        "rules": [
            {
                "key": "ActiveEffectLike",
                "mode": "add",
                "path": "data.crafting.entries.talismanDabbler.maxSlots",
                "value": 2
            }
        ],
        "source": {
            "value": "Pathfinder Advanced Player's Guide"
        },
        "traits": {
            "custom": "",
            "rarity": {
                "value": "common"
            },
            "value": [
                "archetype"
            ]
        }
    },
    "effects": [],
    "flags": {},
    "img": "systems/pf2e/icons/features/feats/feats.webp",
    "name": "Deeper Dabbler",
    "type": "feat"
}
