{
    "_id": "bqZkAFS6eq9TKXMO",
    "data": {
        "actionCategory": {
            "value": ""
        },
        "actionType": {
            "value": "action"
        },
        "actions": {
            "value": 1
        },
        "description": {
            "value": "<p>You sprout dragon wings from your back of the same color as your chosen dragon. While you are raging, you gain a fly Speed equal to your land Speed. If you are flying when your rage ends, you start to fall but the transformation only completes at the last moment, so you take no damage from the fall and land standing up.</p>"
        },
        "featType": {
            "value": "class"
        },
        "level": {
            "value": 12
        },
        "prerequisites": {
            "value": [
                {
                    "value": "dragon instinct"
                }
            ]
        },
        "rules": [],
        "source": {
            "value": "Pathfinder Core Rulebook"
        },
        "traits": {
            "custom": "",
            "rarity": {
                "value": "common"
            },
            "value": [
                "barbarian",
                "morph",
                "primal",
                "rage",
                "transmutation"
            ]
        }
    },
    "effects": [],
    "flags": {},
    "img": "systems/pf2e/icons/features/feats/feats.webp",
    "name": "Dragon's Rage Wings",
    "type": "feat"
}
