{
    "_id": "lBGM7MfQAS1tVLYw",
    "data": {
        "actionCategory": {
            "value": ""
        },
        "actionType": {
            "value": "passive"
        },
        "actions": {
            "value": null
        },
        "description": {
            "value": "<p>You gain your mystery's initial revelation spell (<em>@Compendium[pf2e.spells-srd.Soul Siphon]{Soul Siphon}</em>). Casting this spell progresses your @Compendium[pf2e.classfeatures.Oracular Curse]{Oracular Curse}. Use the minor curse from your mystery, but when you progress it again, instead of your mystery's moderate curse effect, you become @Compendium[pf2e.conditionitems.Flat-Footed]{Flat-Footed} in addition to the effects of the minor curse.</p>\n<p>If you don't have one, you gain a focus pool of 1 Focus Point. You can @Compendium[pf2e.actionspf2e.Refocus]{Refocus} by reconciling the conflicting nature of your mystery, which also reduces your curse to minor.</p>\n<h4>Minor Curse of Bones</h4>\n<p>Bones protrude through your skin and your flesh rots, combining with a stench of decay and an unearthly chill. Non-magical effects that would restore your Hit Points only grant you half as many HP as normal.</p>\n<p>@Compendium[pf2e.feature-effects.Effect: Minor Bones Curse]{Effect: Minor Bones Curse}</p>"
        },
        "featType": {
            "value": "archetype"
        },
        "level": {
            "value": 4
        },
        "location": "",
        "prerequisites": {
            "value": [
                {
                    "value": "Oracle Dedication"
                }
            ]
        },
        "rules": [
            {
                "key": "ActiveEffectLike",
                "mode": "add",
                "path": "data.resources.focus.max",
                "value": 1
            }
        ],
        "source": {
            "value": ""
        },
        "traits": {
            "custom": "",
            "rarity": {
                "value": "common"
            },
            "value": [
                "archetype"
            ]
        }
    },
    "effects": [],
    "flags": {},
    "img": "systems/pf2e/icons/features/feats/feats.webp",
    "name": "First Revelation (Bones Mystery)",
    "type": "feat"
}
