{
    "_id": "xhiwito5kneP4sjV",
    "data": {
        "actionCategory": {
            "value": ""
        },
        "actionType": {
            "value": "passive"
        },
        "actions": {
            "value": null
        },
        "description": {
            "value": "<p>You have mastered a handful of spells to such a degree that you can cast them even if you haven't prepared them in advance.</p>\n<p>Select any four spells of 9th level or lower that you have access to; each spell you select must be of a different level. These spells are automatically prepared when you make your daily preparations, and they have their own spell slots. You can select a different array of spells by spending 1 week of downtime retraining your mastered spells.</p>"
        },
        "featType": {
            "value": "class"
        },
        "level": {
            "value": 20
        },
        "location": "",
        "prerequisites": {
            "value": []
        },
        "rules": [],
        "source": {
            "value": "Pathfinder #150: Broken Promises"
        },
        "traits": {
            "custom": "",
            "rarity": {
                "value": "uncommon"
            },
            "value": [
                "wizard"
            ]
        }
    },
    "effects": [],
    "flags": {},
    "img": "systems/pf2e/icons/features/feats/feats.webp",
    "name": "Spell Mastery",
    "type": "feat"
}
