{
    "_id": "zXKfKKOxht0b0XNL",
    "data": {
        "actionCategory": {
            "value": ""
        },
        "actionType": {
            "value": "free"
        },
        "actions": {
            "value": null
        },
        "description": {
            "value": "<p><strong>Frequency</strong> once per round</p>\n<p><strong>Trigger</strong> You use @Compendium[pf2e.classfeatures.Quick Alchemy]{Quick Alchemy} to craft an alchemical bomb, and that bomb's level is at least 2 levels lower than your advanced alchemy level</p>\n<hr />\n<p>You mix in an additive to make your bomb's contents adhere to the target and continue to deal damage.</p>\n<p>A creature that takes a direct hit from one of your sticky bombs also takes persistent damage equal to and of the same type as the bomb's splash damage. If the bomb already deals persistent damage, combine the two amounts.</p>"
        },
        "featType": {
            "value": "class"
        },
        "level": {
            "value": 8
        },
        "location": "",
        "prerequisites": {
            "value": []
        },
        "rules": [
            {
                "key": "ToggleProperty",
                "label": "Sticky Bomb",
                "property": "flags.pf2e.rollOptions.damage-roll.sticky-bomb"
            },
            {
                "key": "Note",
                "predicate": {
                    "all": [
                        "alchemical",
                        "bomb",
                        "sticky-bomb"
                    ]
                },
                "selector": "damage",
                "text": "<p class='compact-text'><strong>{item|name}</strong> If you hit, your bomb deals persistent damage equal to, and of the same type, as the bomb's splash damage.</p>"
            }
        ],
        "source": {
            "value": "Pathfinder Core Rulebook"
        },
        "traits": {
            "custom": "",
            "rarity": {
                "value": "common"
            },
            "value": [
                "alchemist",
                "additive2"
            ]
        }
    },
    "effects": [],
    "flags": {},
    "img": "systems/pf2e/icons/features/feats/feats.webp",
    "name": "Sticky Bomb",
    "type": "feat"
}
