{
    "_id": "9yzlmYUdvdQshTDF",
    "data": {
        "description": {
            "value": ""
        },
        "duration": {
            "expiry": "turn-start",
            "sustained": false,
            "unit": "minutes",
            "value": 10
        },
        "level": {
            "value": 1
        },
        "rules": [
            {
                "key": "FlatModifier",
                "label": "Bullhorn",
                "predicate": {
                    "all": [
                        "auditory",
                        "action:perform",
                        "terrain:largeVenue"
                    ]
                },
                "selector": "performance",
                "type": "status",
                "value": 1
            },
            {
                "key": "FlatModifier",
                "label": "Bullhorn",
                "predicate": {
                    "all": [
                        "action:coerce"
                    ]
                },
                "selector": "intimidation",
                "type": "status",
                "value": 1
            }
        ],
        "source": {
            "value": "Pathfinder Secrets of Magic"
        },
        "start": {
            "initiative": null,
            "value": 0
        },
        "target": null,
        "tokenIcon": {
            "show": true
        },
        "traits": {
            "custom": "",
            "rarity": {
                "value": "common"
            },
            "value": []
        }
    },
    "effects": [],
    "flags": {},
    "img": "systems/pf2e/icons/default-icons/effect.svg",
    "name": "Spell Effect: Bullhorn",
    "type": "effect"
}
