{
    "_id": "TjGHxli0edXI6rAg",
    "data": {
        "description": {
            "value": "<p>The creature is distracted by its amusement and takes a -1 status penalty on Perception checks and Will saves for 1 round.</p>"
        },
        "duration": {
            "expiry": "turn-start",
            "sustained": false,
            "unit": "rounds",
            "value": 1
        },
        "level": {
            "value": 1
        },
        "rules": [
            {
                "key": "FlatModifier",
                "label": "Schadenfreude",
                "selector": "perception",
                "type": "status",
                "value": -1
            }
        ],
        "source": {
            "value": ""
        },
        "start": {
            "initiative": null,
            "value": 0
        },
        "target": null,
        "tokenIcon": {
            "show": true
        },
        "traits": {
            "custom": "",
            "rarity": {
                "value": "common"
            },
            "value": []
        }
    },
    "effects": [],
    "flags": {},
    "img": "systems/pf2e/icons/spells/schadenfreude.webp",
    "name": "Spell Effect: Schadenfreude (Success)",
    "type": "effect"
}
