{
    "_id": "I6MMTpk9faBOHb2T",
    "actorIds": [],
    "author": "7rBRoXLPb5I767rN",
    "command": "const tokens = canvas.tokens.controlled;\nif (tokens.length != 1) {\n    ui.notifications.error(`You must select one pc token`);\n} else {\n    game.pf2e.actions.encouragingWords({ actors: [token.actor ?? actor].filter((actor) => actor !== null) });\n}",
    "flags": {},
    "img": "icons/svg/dice-target.svg",
    "name": "Encouraging Words",
    "permission": {
        "default": 0
    },
    "scope": "global",
    "type": "script"
}
