{
    "_id": "IPcdQAwJk0aZe5mg",
    "data": {
        "actionCategory": {
            "value": ""
        },
        "actionType": {
            "value": "passive"
        },
        "actions": {
            "value": null
        },
        "description": {
            "value": "<p>Evolution feats are a special type of summoner class feat that allow you to customize your eidolon through your shared link. You gain an evolution feat for your eidolon at 1st level, representing the differences that make it unique from other eidolons of its type. If you retrain this feat, the feat you replace it with must also be an evolution feat.</p>"
        },
        "featType": {
            "value": "classfeature"
        },
        "level": {
            "value": 1
        },
        "location": "",
        "prerequisites": {
            "value": []
        },
        "rules": [],
        "source": {
            "value": ""
        },
        "traits": {
            "custom": "",
            "rarity": {
                "value": "common"
            },
            "value": [
                "summoner"
            ]
        }
    },
    "effects": [],
    "flags": {},
    "img": "systems/pf2e/icons/features/classes/evolution-feat.webp",
    "name": "Evolution Feat",
    "type": "feat"
}
