{
    "_id": "DZWQspPi4IkfXV2E",
    "data": {
        "actionCategory": {
            "value": ""
        },
        "actionType": {
            "value": "passive"
        },
        "actions": {
            "value": null
        },
        "description": {
            "value": "<p>You can recall pertinent facts on topics that aren't your specialty. Your proficiency bonus to untrained skill checks to @Compendium[pf2e.actionspf2e.Recall Knowledge (Lore)]{Recall Knowledge} is equal to your level instead of +0.</p>"
        },
        "featType": {
            "value": "classfeature"
        },
        "level": {
            "value": 3
        },
        "location": "",
        "prerequisites": {
            "value": []
        },
        "rules": [
            {
                "key": "FlatModifier",
                "label": "Keen Recollection (to Recall Knowledge)",
                "predicate": {
                    "all": [
                        "action:recall-knowledge"
                    ]
                },
                "selector": "skill-check",
                "type": "proficiency",
                "value": "@details.level.value"
            }
        ],
        "source": {
            "value": ""
        },
        "traits": {
            "custom": "",
            "rarity": {
                "value": "common"
            },
            "value": [
                "investigator"
            ]
        }
    },
    "effects": [],
    "flags": {},
    "img": "systems/pf2e/icons/features/classes/keen-recollection.webp",
    "name": "Keen Recollection",
    "type": "feat"
}
