{
    "_id": "Jvyy6oVIQsD34MHB",
    "data": {
        "ability": {
            "value": ""
        },
        "area": {
            "areaType": "",
            "value": null
        },
        "areasize": {
            "value": ""
        },
        "category": {
            "value": "spell"
        },
        "components": {
            "material": false,
            "somatic": true,
            "verbal": true
        },
        "cost": {
            "value": ""
        },
        "damage": {
            "value": {}
        },
        "description": {
            "value": "<p>The target is overcome with an all-consuming urge to dance. For the duration of the spell, the target is @Compendium[pf2e.conditionitems.Flat-Footed]{Flat-Footed} and can't use reactions. While affected, the creature can't use actions with the move trait except to dance, using the Stride action to move up to half its Speed.</p>\n<hr /><strong>Critical Success</strong> The target is unaffected.\n<p><strong>Success</strong> The spell's duration is 3 rounds, and the target must spend at least 1 action each turn dancing.</p>\n<p><strong>Failure</strong> The spell's duration is 1 minute, and the target must spend at least 2 actions each turn dancing.</p>\n<p><strong>Critical Failure</strong> The spell's duration is 1 minute, and the target must spend all its actions each turn dancing.</p>"
        },
        "duration": {
            "value": "varies"
        },
        "hasCounteractCheck": {
            "value": false
        },
        "level": {
            "value": 8
        },
        "location": {
            "value": ""
        },
        "materials": {
            "value": ""
        },
        "prepared": {
            "value": ""
        },
        "primarycheck": {
            "value": ""
        },
        "range": {
            "value": "touch"
        },
        "rules": [],
        "save": {
            "basic": "",
            "value": "will"
        },
        "school": {
            "value": "enchantment"
        },
        "secondarycasters": {
            "value": ""
        },
        "secondarycheck": {
            "value": ""
        },
        "source": {
            "value": "Pathfinder Core Rulebook"
        },
        "spellType": {
            "value": "save"
        },
        "sustained": {
            "value": false
        },
        "target": {
            "value": "1 creature"
        },
        "time": {
            "value": "2"
        },
        "traditions": {
            "value": [
                "arcane",
                "occult"
            ]
        },
        "traits": {
            "custom": "",
            "rarity": {
                "value": "common"
            },
            "value": [
                "incapacitation",
                "mental"
            ]
        }
    },
    "effects": [],
    "flags": {},
    "img": "systems/pf2e/icons/spells/uncontrollable-dance.webp",
    "name": "Uncontrollable Dance",
    "type": "spell"
}
