{
    "_id": "B7fDgC6tcv41lcP7",
    "data": {
        "actionCategory": {
            "value": ""
        },
        "actionType": {
            "value": "passive"
        },
        "actions": {
            "value": null
        },
        "description": {
            "value": "<p><strong>[General]</strong><strong>[Limited Use]</strong><strong>□</strong><strong>□</strong></p>\n<p><strong>Effect</strong>: Your efforts assisting Venture-Captain Qaradi have given you some insights into family trees. Immediately after the venture-captain briefing in a scenario, you can check a box next to this boon to increase your proficiency in either Genealogy Lore or Heraldry lore by 1 step until the end of the scenario: untrained becomes trained, trained becomes expert, and expert becomes master. You can't increase your proficiency to legendary using this boon, and the effects of this boon aren't cumulative with any other temporary proficiency increases to the associated skills.</p>"
        },
        "featType": {
            "value": "pfsboon"
        },
        "level": {
            "value": 0
        },
        "prerequisites": {
            "value": []
        },
        "rules": [],
        "source": {
            "value": ""
        },
        "traits": {
            "custom": "",
            "rarity": {
                "value": "common"
            },
            "selected": {},
            "value": []
        }
    },
    "effects": [],
    "flags": {},
    "img": "systems/pf2e/icons/default-icons/mystery-man.webp",
    "name": "S1-Q11 - Amateur Genealogist",
    "type": "feat"
}
