{
    "_id": "KBEJVRrie2JTHWIK",
    "data": {
        "description": {
            "value": "<p>Granted by @Compendium[pf2e.feats-srd.Dread Marshal Stance]{Dread Marshal Stance}</p>\n<p>Your marshal's aura grants you and allies a status bonus to damage rolls equal to the number of weapon damage dice of the unarmed attack or weapon you are wielding that has the most weapon damage dice. When you or an ally in the aura critically hits an enemy with a Strike, that enemy is @Compendium[pf2e.conditionitems.Frightened]{Frightened 1}.</p>"
        },
        "duration": {
            "expiry": "turn-start",
            "sustained": false,
            "unit": "unlimited",
            "value": -1
        },
        "level": {
            "value": 1
        },
        "rules": [
            {
                "key": "Note",
                "outcome": [
                    "criticalSuccess"
                ],
                "selector": "damage",
                "text": "<p class='compact-text'>When you or an ally in the aura critically hits an enemy with a Strike, that enemy is @Compendium[pf2e.conditionitems.Frightened]{Frightened 1}.</p>"
            },
            {
                "key": "Note",
                "selector": "damage",
                "text": "<p class='compact-text'>The Marshal's aura grants you and allies a status bonus to damage rolls equal to the number of weapon damage dice of the unarmed attack or weapon you are wielding that has the most weapon damage dice</p>"
            }
        ],
        "source": {
            "value": ""
        },
        "start": {
            "initiative": null,
            "value": 0
        },
        "target": null,
        "tokenIcon": {
            "show": false
        },
        "traits": {
            "custom": "",
            "rarity": {
                "value": "common"
            },
            "value": []
        }
    },
    "effects": [],
    "flags": {},
    "img": "systems/pf2e/icons/default-icons/effect.svg",
    "name": "Effect: Dread Marshal Stance",
    "type": "effect"
}
