{
    "_id": "3Wtzyb0ZgkaC7vHY",
    "data": {
        "description": {
            "value": "<p><strong>Requirements</strong> The cultist has taken damage and is neither @Compendium[pf2e.conditionitems.Fatigued]{Fatigued} nor already in a frenzy;</p>\n<p><strong>Effect</strong> The cultist flies into a frenzy that lasts 1 minute. While frenzied, the cultist gains a +1 status bonus to attack rolls and a +2 status bonus to damage rolls, and they take a -2 status penalty to AC. The cultist can't voluntarily stop their frenzy. After their frenzy, the cultist is @Compendium[pf2e.conditionitems.Fatigued]{Fatigued}.</p>"
        },
        "duration": {
            "expiry": "turn-start",
            "sustained": false,
            "unit": "minutes",
            "value": 1
        },
        "level": {
            "value": 1
        },
        "rules": [
            {
                "key": "ActiveEffectLike",
                "mode": "upgrade",
                "path": "flags.pf2e.rollOptions.all.fanatical-frenzy",
                "value": 1
            }
        ],
        "source": {
            "value": "Pathfinder Gamemastery Guide"
        },
        "start": {
            "initiative": null,
            "value": 0
        },
        "target": null,
        "tokenIcon": {
            "show": true
        },
        "traits": {
            "custom": "",
            "rarity": {
                "value": "common"
            },
            "value": []
        }
    },
    "effects": [],
    "flags": {},
    "img": "systems/pf2e/icons/spells/hideous-laughter.webp",
    "name": "Effect: Fanatical Frenzy",
    "type": "effect"
}
