{
    "_id": "UUDBSBzK4W5FP8je",
    "content": "<p>Play before you attempt a Reflex save.</p>\n<hr />\n<p>You succeed at the saving throw without needing to roll. You gain the @Compendium[pf2e.conditionitems.Clumsy]{Clumsy 1} condition, which lasts until the next time you get a full night's rest.</p>",
    "flags": {},
    "name": "Dive Out of Danger",
    "permission": {
        "default": 0
    }
}
